{
  "AttributeDefinitions": [
    {
      "AttributeName": "dateString",
      "AttributeType": "S"
    }
  ],
  "TableName": "ootw-videourls-table-prod",
  "KeySchema": [
    {
      "AttributeName": "dateString",
      "KeyType": "HASH"
    }
  ],
  "ProvisionedThroughput": {
    "ReadCapacityUnits": 0,
    "WriteCapacityUnits": 0
  },
  "BillingModeSummary": {
    "BillingMode": "PAY_PER_REQUEST",
    "LastUpdateToPayPerRequestDateTime": "2023-06-01T23:23:09.187000-04:00"
  },
  "DeletionProtectionEnabled": true
}
